{
  "request": {
    "country": "uk",
    "language": "en",
    "location": "London",
    "num_res": "20",
    "offset": 0,
    "output": "json_xs",
    "page": 1,
    "pretty": "1",
    "product_type": "realestate",
    "property_type": "property",
    "size_type": "net",
    "size_unit": "m2",
    "sort": "nestoria_rank",
    "listing_type": "buy"
  },
  "response": {
    "application_response_code": "101",
    "application_response_text": "listings returned for best guess of ambiguous location",
    "attribution": {
      "img_height": 22,
      "img_url": "http://resources.nestimg.com/nestoria/img/pbr_v1.png",
      "img_width": 183,
      "link_to_img": "http://www.nestoria.com"
    },
    "created_http": "Sat, 26 Nov 2016 20:26:43 GMT",
    "created_unix": 1480192003,
    "link_to_url": "http://www.nestoria.co.uk/London/property/buy",
    "listings": [
      {
        "bathroom_number": 3,
        "bedroom_number": 3,
        "car_spaces": 0,
        "commission": 0,
        "construction_year": 0,
        "datasource_name": "Zoopla",
        "floor": 11,
        "img_height": 254,
        "img_url": "file:///home/pavel/public_html/AngularJS/img/apiImages/1.jpg",
        "img_width": 338,
        "keywords": "En suite, Balcony, Gym, Double Bedroom, Kitchen, Porter, Swimming Pool, Parking",
        "latitude": 51.5076,
        "lister_name": "Easyproperty",
        "lister_url": "http://www.nestoria.co.uk/detail/0000005450010476793187004/title/5/1-1?serpUid=&pt=1&ot=1&l=london&did=57_default&utm_source=api&utm_medium=external",
        "listing_type": "buy",
        "location_accuracy": 9,
        "longitude": -0.059423927,
        "price": 2115000,
        "price_currency": "£",
        "price_formatted": "£2,115,000",
        "price_high": 2115000,
        "price_low": 2115000,
        "price_type": "fixed",
        "property_type": "flat",
        "size": 0,
        "size_type": "net",
        "summary": "Please quote reference 2021822 when enquiring about this property e...",
        "thumb_height": 60,
        "thumb_url": "http://imgs.nestimg.com/medium/flat_5450010476793187004.jpg",
        "thumb_width": 80,
        "title": "Flat for sale, London E1w - Gym",
        "updated_in_days": 1,
        "updated_in_days_formatted": "new!"
      },
      {
        "bathroom_number": 1,
        "bedroom_number": 1,
        "car_spaces": 0,
        "commission": 0,
        "construction_year": 0,
        "datasource_name": "PrimeLocation",
        "img_height": 230,
        "img_url": "file:///home/pavel/public_html/AngularJS/img/apiImages/2.jpg",
        "img_width": 306,
        "keywords": "Garden, Balcony, Gym, Sauna, Kitchen, Porter, Swimming Pool, Reception",
        "latitude": 51.505764,
        "lister_name": "Lourdes",
        "lister_url": "http://www.nestoria.co.uk/detail/0000001440004463475666313/title/5/1-2?serpUid=&pt=1&ot=1&l=london&did=69_high1&utm_source=api&utm_medium=external",
        "listing_type": "buy",
        "location_accuracy": 9,
        "longitude": -0.060801737,
        "price": 895000,
        "price_currency": "£",
        "price_formatted": "£895,000",
        "price_high": 895000,
        "price_low": 895000,
        "price_type": "fixed",
        "property_type": "flat",
        "size": 0,
        "size_type": "net",
        "summary": "Situated in the heart of the capital, just moments from st katharin...",
        "thumb_height": 60,
        "thumb_url": "http://imgs.nestimg.com/medium/flat_1440004463475666313.jpg",
        "thumb_width": 80,
        "title": "Block London Dock, Virginia Street E1w",
        "updated_in_days": 3,
        "updated_in_days_formatted": "first seen 3 days ago"
      },
      {
        "bathroom_number": 2,
        "bedroom_number": 4,
        "car_spaces": 0,
        "commission": 0,
        "construction_year": 0,
        "datasource_name": "The House Shop",
        "img_height": 300,
        "img_url": "file:///home/pavel/public_html/AngularJS/img/apiImages/3.jpg",
        "img_width": 400,
        "keywords": "Mews, En suite, New Build, Victorian, Double Bedroom, Basement",
        "latitude": 51.539191,
        "lister_name": "Currell",
        "lister_url": "http://www.nestoria.co.uk/detail/0000004770122480076749819/title/5/1-3?serpUid=&pt=1&ot=1&l=london&did=71_default&utm_source=api&utm_medium=external",
        "listing_type": "buy",
        "location_accuracy": 10,
        "longitude": -0.092131,
        "price": 2650000,
        "price_currency": "£",
        "price_formatted": "£2,650,000",
        "price_high": 2650000,
        "price_low": 2650000,
        "price_type": "fixed",
        "property_type": "house",
        "size": 0,
        "size_type": "net",
        "summary": "Key features 23 elizabeth avenue is a unique collection of three su...",
        "thumb_height": 60,
        "thumb_url": "http://imgs.nestimg.com/medium/detached_house_de_beauvoir_town_4770122480076749819.jpg",
        "thumb_width": 80,
        "title": "Elizabeth Avenue Canonbury London",
        "updated_in_days": 1,
        "updated_in_days_formatted": "new!"
      },
      {
        "bathroom_number": 1,
        "bedroom_number": 1,
        "car_spaces": 0,
        "commission": 0,
        "construction_year": 0,
        "datasource_name": "SmartNewHomes",
        "img_height": 255,
        "img_url": "file:///home/pavel/public_html/AngularJS/img/apiImages/4.jpg",
        "img_width": 340,
        "keywords": "Shared Equity",
        "latitude": 51.49069,
        "lister_name": "Rw Invest",
        "lister_url": "http://www.nestoria.co.uk/detail/0000005180069480076010249/title/5/1-4?serpUid=&pt=1&ot=1&l=london&did=39_default&utm_source=api&utm_medium=external",
        "listing_type": "buy",
        "location_accuracy": 9,
        "longitude": 0.009172,
        "price": 150000,
        "price_currency": "£",
        "price_formatted": "£150,000",
        "price_high": 150000,
        "price_low": 150000,
        "price_type": "fixed",
        "property_type": "flat",
        "size": 0,
        "size_type": "net",
        "summary": "Why ibis styles greenwich peninsula hotel for investment purposes n...",
        "thumb_height": 60,
        "thumb_url": "http://imgs.nestimg.com/medium/flat_london_5180069480076010249.jpg",
        "thumb_width": 80,
        "title": "London Hotel Investment, Tunnel Avenue Se10",
        "updated_in_days": 1,
        "updated_in_days_formatted": "new!"
      },
      {
        "bathroom_number": 0,
        "bedroom_number": 3,
        "car_spaces": 0,
        "commission": 0,
        "construction_year": 0,
        "datasource_name": "Home.co.uk",
        "img_height": 100,
        "img_url": "file:///home/pavel/public_html/AngularJS/img/apiImages/5.jpg",
        "img_width": 133,
        "keywords": "Conversion, Energy Rating, High Ceilings, Refurbished, Victorian",
        "latitude": 51.463281,
        "lister_url": "http://www.nestoria.co.uk/detail/0000002970035479988266099/title/5/1-5?serpUid=&pt=1&ot=1&l=london&did=85_default&utm_source=api&utm_medium=external",
        "listing_type": "buy",
        "location_accuracy": 10,
        "longitude": -0.168102,
        "price": 995000,
        "price_currency": "£",
        "price_formatted": "£995,000",
        "price_high": 995000,
        "price_low": 995000,
        "price_type": "fixed",
        "property_type": "flat",
        "size": 0,
        "size_type": "net",
        "summary": "Situated within the iconic former victorian department store franci...",
        "thumb_height": 60,
        "thumb_url": "http://imgs.nestimg.com/medium/flatapartment_2970035479988266099.jpg",
        "thumb_width": 80,
        "title": "Francis House St. Johns Road London, Clapham Junction",
        "updated_in_days": 2,
        "updated_in_days_formatted": "first seen 2 days ago"
      },
      {
        "bathroom_number": 0,
        "bedroom_number": 2,
        "car_spaces": 0,
        "commission": 0,
        "construction_year": 0,
        "datasource_name": "Zoopla",
        "floor": 5,
        "img_height": 255,
        "img_url": "file:///home/pavel/public_html/AngularJS/img/apiImages/6.jpg",
        "img_width": 340,
        "keywords": "Shared Garden, Grade II, Balcony, Porter, Parking, Reception, Listed",
        "latitude": 51.519955,
        "lister_name": "Hamptons",
        "lister_url": "http://www.nestoria.co.uk/detail/0000001900010479989036981/title/5/1-6?serpUid=&pt=1&ot=1&l=london&did=57_default&utm_source=api&utm_medium=external",
        "listing_type": "buy",
        "location_accuracy": 9,
        "longitude": -0.095429,
        "price": 875000,
        "price_currency": "£",
        "price_formatted": "£875,000",
        "price_high": 875000,
        "price_low": 875000,
        "price_type": "fixed",
        "property_type": "flat",
        "size": 0,
        "size_type": "net",
        "summary": "Set on the fifth floor of defoe house this type 21 retains many of ...",
        "thumb_height": 60,
        "thumb_url": "http://imgs.nestimg.com/medium/flat_london_1900010479989036981.jpg",
        "thumb_width": 80,
        "title": "Defoe House, Barbican, City Of London Ec2y",
        "updated_in_days": 2,
        "updated_in_days_formatted": "first seen 2 days ago"
      },
      {
        "bathroom_number": 6,
        "bedroom_number": 4,
        "car_spaces": 0,
        "commission": 0,
        "construction_year": 0,
        "datasource_name": "Zoopla",
        "img_height": 255,
        "img_url": "file:///home/pavel/public_html/AngularJS/img/apiImages/7.jpg",
        "img_width": 340,
        "keywords": "En suite, Refurbished, Kitchen, Reception",
        "latitude": 51.520245,
        "lister_name": "Rayan Investments",
        "lister_url": "http://www.nestoria.co.uk/detail/0000006370010479989013824/title/5/1-7?serpUid=&pt=1&ot=1&l=london&did=57_default&utm_source=api&utm_medium=external",
        "listing_type": "buy",
        "location_accuracy": 9,
        "longitude": -0.159244,
        "price": 3690000,
        "price_currency": "£",
        "price_formatted": "£3,690,000",
        "price_high": 3690000,
        "price_low": 3690000,
        "price_type": "fixed",
        "property_type": "flat",
        "size": 0,
        "size_type": "net",
        "summary": "This four bedroom apartment with living accommodation is situated o...",
        "thumb_height": 60,
        "thumb_url": "http://imgs.nestimg.com/medium/flat_6370010479989013824.jpg",
        "thumb_width": 80,
        "title": "Gloucester Place London W1u",
        "updated_in_days": 2,
        "updated_in_days_formatted": "first seen 2 days ago"
      },
      {
        "bathroom_number": 1,
        "bedroom_number": 1,
        "car_spaces": 0,
        "commission": 0,
        "construction_year": 0,
        "datasource_name": "PrimeLocation",
        "floor": 1,
        "img_height": 255,
        "img_url": "file:///home/pavel/public_html/AngularJS/img/apiImages/7.jpg",
        "img_width": 340,
        "keywords": "Garden, Terrace, Balcony, Wood Floor, Kitchen, Modern",
        "latitude": 51.499603,
        "lister_name": "Hastings",
        "lister_url": "http://www.nestoria.co.uk/detail/0000005740131477222757517/title/5/1-8?serpUid=&pt=1&ot=1&l=london&did=69_high1&utm_source=api&utm_medium=external",
        "listing_type": "buy",
        "location_accuracy": 9,
        "longitude": -0.043544,
        "price": 469999,
        "price_currency": "£",
        "price_formatted": "£469,999",
        "price_high": 469999,
        "price_low": 469999,
        "price_type": "fixed",
        "property_type": "flat",
        "size": 0,
        "size_type": "net",
        "summary": "Key features london square, canada water1st floor 1 bed 1 bath 564 ...",
        "thumb_height": 60,
        "thumb_url": "http://imgs.nestimg.com/medium/flat_london_5740131477222757517.jpg",
        "thumb_width": 80,
        "title": "London Square, Quebec Way, Canada Water Se16",
        "updated_in_days": 3,
        "updated_in_days_formatted": "first seen 3 days ago"
      },
      {
        "bathroom_number": 1,
        "bedroom_number": 1,
        "car_spaces": 0,
        "commission": 0,
        "construction_year": 0,
        "datasource_name": "Zoopla",
        "img_height": 191,
        "img_url": "file:///home/pavel/public_html/AngularJS/img/apiImages/8.jpg",
        "img_width": 340,
        "keywords": "Leasehold, Gym, Porter, Swimming Pool",
        "latitude": 51.505764,
        "lister_name": "Montgomery & Slate",
        "lister_url": "http://www.nestoria.co.uk/detail/0000006140034457722185098/title/5/1-9?serpUid=&pt=1&ot=1&l=london&did=57_default&utm_source=api&utm_medium=external",
        "listing_type": "buy",
        "location_accuracy": 9,
        "longitude": -0.060801737,
        "price": 675750,
        "price_currency": "£",
        "price_formatted": "£675,750",
        "price_high": 675750,
        "price_low": 675750,
        "price_type": "fixed",
        "property_type": "flat",
        "size": 0,
        "size_type": "net",
        "summary": "Offering value at a discount from current pricing and a prime posit...",
        "thumb_height": 60,
        "thumb_url": "http://imgs.nestimg.com/medium/flat_6140034457722185098.jpg",
        "thumb_width": 80,
        "title": "London Dock, Wapping E1w - Porter",
        "updated_in_days": 3,
        "updated_in_days_formatted": "first seen 3 days ago"
      },
      {
        "bathroom_number": 1,
        "bedroom_number": 1,
        "car_spaces": 0,
        "commission": 0,
        "construction_year": 0,
        "datasource_name": "PrimeLocation",
        "floor": 0,
        "img_height": 255,
        "img_url": "file:///home/pavel/public_html/AngularJS/img/apiImages/9.jpg",
        "img_width": 340,
        "keywords": "No Chain, Conversion, High Ceilings, Refurbished, Victorian, Double Bedroom, Kitchen, Reception",
        "latitude": 51.419525,
        "lister_name": "Time 2 Move",
        "lister_url": "http://www.nestoria.co.uk/detail/0000001970121479990386599/title/5/1-10?serpUid=&pt=1&ot=1&l=london&did=69_high1&utm_source=api&utm_medium=external",
        "listing_type": "buy",
        "location_accuracy": 9,
        "longitude": -0.162071,
        "price": 335000,
        "price_currency": "£",
        "price_formatted": "£335,000",
        "price_high": 335000,
        "price_low": 335000,
        "price_type": "fixed",
        "property_type": "flat",
        "size": 0,
        "size_type": "net",
        "summary": "An ground floor victorian conversion boasting one double bedroom an...",
        "thumb_height": 60,
        "thumb_url": "http://imgs.nestimg.com/medium/flat_london_1970121479990386599.jpg",
        "thumb_width": 80,
        "title": "London Road, Tooting Borders Sw17",
        "updated_in_days": 2,
        "updated_in_days_formatted": "first seen 2 days ago"
      },
      {
        "bathroom_number": 2,
        "bedroom_number": 2,
        "car_spaces": 0,
        "commission": 0,
        "construction_year": 0,
        "datasource_name": "PrimeLocation",
        "floor": 2,
        "img_height": 244,
        "img_url": "file:///home/pavel/public_html/AngularJS/img/apiImages/10.jpg",
        "img_width": 325,
        "keywords": "Penthouse, Balcony, Sauna, Kitchen, Porter, Swimming Pool, Parking, Modern",
        "latitude": 51.512203,
        "lister_url": "http://www.nestoria.co.uk/detail/0000008130124477158123375/title/5/1-11?serpUid=&pt=1&ot=1&l=london&did=69_high1&utm_source=api&utm_medium=external",
        "listing_type": "buy",
        "location_accuracy": 9,
        "longitude": -0.115629636,
        "price": 2295000,
        "price_currency": "£",
        "price_formatted": "£2,295,000",
        "price_high": 2295000,
        "price_low": 2295000,
        "price_type": "fixed",
        "property_type": "flat",
        "size": 0,
        "size_type": "net",
        "summary": "An two bedroom, two bathroom, 1152 sq ft apartment situated on the ...",
        "thumb_height": 60,
        "thumb_url": "http://imgs.nestimg.com/medium/flat_8130124477158123375.jpg",
        "thumb_width": 80,
        "title": "Wren House England London, Westminster Wc2r",
        "updated_in_days": 4,
        "updated_in_days_formatted": "first seen 4 days ago"
      },
      {
        "bathroom_number": 1,
        "bedroom_number": 2,
        "car_spaces": 0,
        "commission": 0,
        "construction_year": 0,
        "datasource_name": "Zoopla",
        "img_height": 255,
        "img_url": "file:///home/pavel/public_html/AngularJS/img/apiImages/11.jpg",
        "img_width": 340,
        "keywords": "Penthouse, No Chain, Terrace, Double Bedroom, Kitchen, Parking, Reception",
        "latitude": 51.59399,
        "lister_name": "Mile",
        "lister_url": "http://www.nestoria.co.uk/detail/0000005040009477732797553/title/5/1-12?serpUid=&pt=1&ot=1&l=london&did=57_default&utm_source=api&utm_medium=external",
        "listing_type": "buy",
        "location_accuracy": 9,
        "longitude": -0.261095,
        "price": 500000,
        "price_currency": "£",
        "price_formatted": "£500,000",
        "price_high": 500000,
        "price_low": 500000,
        "price_type": "fixed",
        "property_type": "flat",
        "size": 0,
        "size_type": "net",
        "summary": "Brand newly built split level penthouse apartment the property comp...",
        "thumb_height": 60,
        "thumb_url": "http://imgs.nestimg.com/medium/flat_5040009477732797553.jpg",
        "thumb_width": 80,
        "title": "Flat for sale, London Nw9 - Reception",
        "updated_in_days": 2,
        "updated_in_days_formatted": "first seen 2 days ago"
      },
      {
        "bathroom_number": 2,
        "bedroom_number": 2,
        "car_spaces": 0,
        "commission": 0,
        "construction_year": 0,
        "datasource_name": "Zoopla",
        "floor": 1,
        "img_height": 255,
        "img_url": "file:///home/pavel/public_html/AngularJS/img/apiImages/12.jpg",
        "img_width": 340,
        "keywords": "En suite, Balcony, Wood Floor, Kitchen, Parking, Reception",
        "latitude": 51.512203,
        "lister_name": "Fine & Country",
        "lister_url": "http://www.nestoria.co.uk/detail/0000001280010477563004177/title/5/1-13?serpUid=&pt=1&ot=1&l=london&did=57_default&utm_source=api&utm_medium=external",
        "listing_type": "buy",
        "location_accuracy": 9,
        "longitude": -0.115629636,
        "price": 2250000,
        "price_currency": "£",
        "price_formatted": "£2,250,000",
        "price_high": 2250000,
        "price_low": 2250000,
        "price_type": "fixed",
        "property_type": "flat",
        "size": 0,
        "size_type": "net",
        "summary": "Wren house is located within the development at 190 the strand loca...",
        "thumb_height": 60,
        "thumb_url": "http://imgs.nestimg.com/medium/flat_1280010477563004177.jpg",
        "thumb_width": 80,
        "title": "Flat for sale, London Wc2r - Balcony",
        "updated_in_days": 4,
        "updated_in_days_formatted": "first seen 4 days ago"
      },
      {
        "bathroom_number": 1,
        "bedroom_number": 1,
        "car_spaces": 0,
        "commission": 0,
        "construction_year": 0,
        "datasource_name": "Zoopla",
        "img_height": 255,
        "img_url": "file:///home/pavel/public_html/AngularJS/img/apiImages/13.jpg",
        "img_width": 340,
        "keywords": "Wood Floor, Double Bedroom, Kitchen, Loft, Off Street Parking, Reception, Gas Central Heating, Modern",
        "latitude": 51.43901,
        "lister_name": "Pedder",
        "lister_url": "http://www.nestoria.co.uk/detail/0000001420009476260130593/title/5/1-14?serpUid=&pt=1&ot=1&l=london&did=57_default&utm_source=api&utm_medium=external",
        "listing_type": "buy",
        "location_accuracy": 9,
        "longitude": -0.054366,
        "price": 315000,
        "price_currency": "£",
        "price_formatted": "£315,000",
        "price_high": 315000,
        "price_low": 315000,
        "price_type": "fixed",
        "property_type": "flat",
        "size": 0,
        "size_type": "net",
        "summary": "A well presented one double bedroom flat for sale in the centre of ...",
        "thumb_height": 60,
        "thumb_url": "http://imgs.nestimg.com/medium/flat_london_1420009476260130593.jpg",
        "thumb_width": 80,
        "title": "London Road Se23 - Modern, Wood Floor",
        "updated_in_days": 3,
        "updated_in_days_formatted": "first seen 3 days ago"
      },
      {
        "bathroom_number": 2,
        "bedroom_number": 2,
        "car_spaces": 0,
        "commission": 0,
        "construction_year": 0,
        "datasource_name": "Zoopla",
        "floor": 3,
        "img_height": 150,
        "img_url": "file:///home/pavel/public_html/AngularJS/img/apiImages/14.jpg",
        "img_width": 200,
        "keywords": "En suite, Balcony, Kitchen, Porter, Parking, Reception",
        "latitude": 51.459293,
        "lister_name": "Chartwell",
        "lister_url": "http://www.nestoria.co.uk/detail/0000003860010474450902088/title/5/1-15?serpUid=&pt=1&ot=1&l=london&did=57_default&utm_source=api&utm_medium=external",
        "listing_type": "buy",
        "location_accuracy": 9,
        "longitude": -0.21116224,
        "price": 699950,
        "price_currency": "£",
        "price_formatted": "£699,950",
        "price_high": 699950,
        "price_low": 699950,
        "price_type": "fixed",
        "property_type": "flat",
        "size": 0,
        "size_type": "net",
        "summary": "Two bedroom third floor apartment with underground parking situated...",
        "thumb_height": 60,
        "thumb_url": "http://imgs.nestimg.com/medium/flat_london_3860010474450902088.jpg",
        "thumb_width": 80,
        "title": "London Square, Upper Richmond Road, Putney Sw15",
        "updated_in_days": 3,
        "updated_in_days_formatted": "first seen 3 days ago"
      },
      {
        "bathroom_number": 2,
        "bedroom_number": 2,
        "car_spaces": 0,
        "commission": 0,
        "construction_year": 0,
        "datasource_name": "Zoopla",
        "floor": 3,
        "img_height": 255,
        "img_url": "file:///home/pavel/public_html/AngularJS/img/apiImages/15.jpg",
        "img_width": 340,
        "keywords": "Leasehold, Garden, Penthouse, Conversion, Porter, Listed",
        "latitude": 51.505764,
        "lister_name": "Savoy",
        "lister_url": "http://www.nestoria.co.uk/detail/0000005630004477157315667/title/5/1-16?serpUid=&pt=1&ot=1&l=london&did=57_default&utm_source=api&utm_medium=external",
        "listing_type": "buy",
        "location_accuracy": 9,
        "longitude": -0.060801737,
        "price": 1327144,
        "price_currency": "£",
        "price_formatted": "£1,327,144",
        "price_high": 1327144,
        "price_low": 1327144,
        "price_type": "fixed",
        "property_type": "flat",
        "size": 0,
        "size_type": "net",
        "summary": "2 bedroom 2 bathroom apartment for sale in london dock development ...",
        "thumb_height": 60,
        "thumb_url": "http://imgs.nestimg.com/medium/flat_5630004477157315667.jpg",
        "thumb_width": 80,
        "title": "London Dock, Wapping E1w - Listed",
        "updated_in_days": 4,
        "updated_in_days_formatted": "first seen 4 days ago"
      },
      {
        "bathroom_number": 3,
        "bedroom_number": 2,
        "car_spaces": 0,
        "commission": 0,
        "construction_year": 0,
        "datasource_name": "PrimeLocation",
        "img_height": 255,
        "img_url": "file:///home/pavel/public_html/AngularJS/img/apiImages/16.jpg",
        "img_width": 340,
        "keywords": "En suite, No Chain, Balcony, Double Bedroom, Kitchen, Dishwasher, Parking, Reception, Modern",
        "latitude": 51.412983,
        "lister_name": "Thomas & May",
        "lister_url": "http://www.nestoria.co.uk/detail/0000001750121479990070595/title/5/1-17?serpUid=&pt=1&ot=1&l=london&did=69_high1&utm_source=api&utm_medium=external",
        "listing_type": "buy",
        "location_accuracy": 9,
        "longitude": -0.288911,
        "price": 319950,
        "price_currency": "£",
        "price_formatted": "£319,950",
        "price_high": 319950,
        "price_low": 319950,
        "price_type": "fixed",
        "property_type": "flat",
        "size": 0,
        "size_type": "net",
        "summary": "Modern two double bedroom apartment, located just 02 miles from nor...",
        "thumb_height": 60,
        "thumb_url": "http://imgs.nestimg.com/medium/flat_kingston_upon_thames_1750121479990070595.jpg",
        "thumb_width": 80,
        "title": "London Road, Kingston, Surrey Kt2",
        "updated_in_days": 2,
        "updated_in_days_formatted": "first seen 2 days ago"
      },
      {
        "bathroom_number": 1,
        "bedroom_number": 0,
        "car_spaces": 0,
        "commission": 0,
        "construction_year": 0,
        "datasource_name": "PrimeLocation",
        "floor": 2,
        "img_height": 255,
        "img_url": "file:///home/pavel/public_html/AngularJS/img/apiImages/17.jpg",
        "img_width": 340,
        "keywords": "Shared Garden, No Chain, Purpose Built",
        "latitude": 51.59929,
        "lister_name": "Mile",
        "lister_url": "http://www.nestoria.co.uk/detail/0000005720008463312395118/title/5/1-18?serpUid=&pt=1&ot=1&l=london&did=69_high1&utm_source=api&utm_medium=external",
        "listing_type": "buy",
        "location_accuracy": 9,
        "longitude": -0.24814712,
        "price": 265000,
        "price_currency": "£",
        "price_formatted": "£265,000",
        "price_high": 265000,
        "price_low": 265000,
        "price_type": "fixed",
        "property_type": "flat",
        "size": 0,
        "size_type": "net",
        "summary": "Studio apartment set in this purpose built block currently under co...",
        "thumb_height": 60,
        "thumb_url": "http://imgs.nestimg.com/medium/studio_5720008463312395118.jpg",
        "thumb_width": 80,
        "title": "Flat for sale, London Nw9 - Garden",
        "updated_in_days": 3,
        "updated_in_days_formatted": "first seen 3 days ago"
      },
      {
        "bathroom_number": 1,
        "bedroom_number": 2,
        "car_spaces": 0,
        "commission": 0,
        "construction_year": 0,
        "datasource_name": "Zoopla",
        "img_height": 243,
        "img_url": "file:///home/pavel/public_html/AngularJS/img/apiImages/18.jpg",
        "img_width": 324,
        "keywords": "Balcony, Double Bedroom, Kitchen, Shared Ownership, Reception",
        "latitude": 51.500603,
        "lister_name": "Campbell",
        "lister_url": "http://www.nestoria.co.uk/detail/0000008680007479039273757/title/5/1-19?serpUid=&pt=1&ot=1&l=london&did=57_default&utm_source=api&utm_medium=external",
        "listing_type": "buy",
        "location_accuracy": 9,
        "longitude": -0.016159689,
        "price": 524250,
        "price_currency": "£",
        "price_formatted": "£524,250",
        "price_high": 524250,
        "price_low": 524250,
        "price_type": "fixed",
        "property_type": "flat",
        "size": 0,
        "size_type": "net",
        "summary": "25% shared ownership £131,06200 brand new two double bedroom apartm...",
        "thumb_height": 60,
        "thumb_url": "http://imgs.nestimg.com/medium/flat_868000747903927375719.jpg",
        "thumb_width": 80,
        "title": "Flat for sale, London E14 - Balcony",
        "updated_in_days": 4,
        "updated_in_days_formatted": "first seen 4 days ago"
      },
      {
        "bathroom_number": 0,
        "bedroom_number": 1,
        "car_spaces": 0,
        "commission": 0,
        "construction_year": 0,
        "datasource_name": "Zoopla",
        "img_height": 255,
        "img_url": "file:///home/pavel/public_html/AngularJS/img/apiImages/20.jpg",
        "img_width": 340,
        "keywords": "",
        "latitude": 51.498215,
        "lister_name": "Buy London Flat",
        "lister_url": "http://www.nestoria.co.uk/detail/0000001850006477304554471/title/5/1-20?serpUid=&pt=1&ot=1&l=london&did=57_default&utm_source=api&utm_medium=external",
        "listing_type": "buy",
        "location_accuracy": 9,
        "longitude": -0.13841891,
        "price": 1120000,
        "price_currency": "£",
        "price_formatted": "£1,120,000",
        "price_high": 1120000,
        "price_low": 1120000,
        "price_type": "fixed",
        "property_type": "flat",
        "size": 0,
        "size_type": "net",
        "summary": "New 1-bed apartment in kingsgate, victoria located in a vibrant nei...",
        "thumb_height": 60,
        "thumb_url": "http://imgs.nestimg.com/medium/flat_1850006477304554471.jpg",
        "thumb_width": 80,
        "title": "Flat for sale, London Sw1e",
        "updated_in_days": 4,
        "updated_in_days_formatted": "first seen 4 days ago"
      }
    ],
    "locations": [
      {
        "center_lat": 51.527243,
        "center_long": -0.106841,
        "long_title": "London",
        "place_name": "london",
        "title": "London"
      }
    ],
    "page": 1,
    "sort": "nestoria_rank",
    "status_code": "200",
    "status_text": "OK",
    "thanks": "For using the Nestoria API.",
    "total_pages": 1969,
    "total_results": 39399,
    "listing_type": "buy"
  }
}
